…
    ## Rows: 35 Columns: 1443
    ## ── Column specification ────────────────────────────────────────────────────────
    ## Delimiter: ","
    ## chr    (1): day
    ## dbl (1442): week, day_id, activity.1, activity.2, activity.3, activity.4, ac...
    ## 
    ## ℹ Use `spec()` to retrieve the full column specification for this data.
    ## ℹ Specify the column types or set `show_col_types = FALSE` to quiet this message.

``` r
accel
```

    ## # A tibble: 50,400 × 6
    ##    week  day_id day    minute activity_count day_type
    ##    <fct> <fct>  <fct>   <dbl>          <dbl> <fct>   
    ##  1 1     1      Friday      1           88.4 Weekday 
    ##  2 1     1      Friday      2           82.2 Weekday 
    ##  3 1     1      Friday      3           64.4 Weekday 
    ##  4 1     1      Friday      4           70.0 Weekday 
    ##  5 1     1      Friday      5           75.0 Weekday 
    ##  6 1     1      Friday      6           66.3 Weekday 
    ##  7 1     1      Friday      7           53.8 Weekday 
    ##  8 1     1      Friday      8           47.8 Weekday 
    ##  9 1     1      Friday      9           55.5 Weekday 
    ## 10 1     1      Friday     10           43.0 Weekday 
    ## # … with 50,390 more rows
…
``` r
# There's less activity between 0 (12:00 AM) and about 300 minutes (5:00 AM) in the day. 
# There are spikes of activity at different points of the day, particularly on Friday at around 1200-1300 minutes (8-10 pm) and 600 minutes (10:00 AM) on Sunday.
```

## Problem 3

``` r
library(p8105.datasets)
data("ny_noaa")

ny_noaa 
```

    ## # A tibble: 2,595,176 × 7
    ##    id          date        prcp  snow  snwd tmax  tmin 
    ##    <chr>       <date>     <int> <int> <int> <chr> <chr>
    ##  1 US1NYAB0001 2007-11-01    NA    NA    NA <NA>  <NA> 
    ##  2 US1NYAB0001 2007-11-02    NA    NA    NA <NA>  <NA> 
    ##  3 US1NYAB0001 2007-11-03    NA    NA    NA <NA>  <NA> 
    ##  4 US1NYAB0001 2007-11-04    NA    NA    NA <NA>  <NA> 
    ##  5 US1NYAB0001 2007-11-05    NA    NA    NA <NA>  <NA> 
    ##  6 US1NYAB0001 2007-11-06    NA    NA    NA <NA>  <NA> 
    ##  7 US1NYAB0001 2007-11-07    NA    NA    NA <NA>  <NA> 
    ##  8 US1NYAB0001 2007-11-08    NA    NA    NA <NA>  <NA> 
    ##  9 US1NYAB0001 2007-11-09    NA    NA    NA <NA>  <NA> 
    ## 10 US1NYAB0001 2007-11-10    NA    NA    NA <NA>  <NA> 
    ## # … with 2,595,166 more rows
…
